...................
----------------------------------------------------------------------
Ran 19 tests in 260.693s

OK
Name             Stmts   Miss Branch BrPart  Cover   Missing
------------------------------------------------------------
Collatz.py          41      3     14      1    93%   127->130, 130-132
TestCollatz.py      83      0      0      0   100%
------------------------------------------------------------
TOTAL              124      3     14      1    97%
