........................
----------------------------------------------------------------------
Ran 24 tests in 0.782s

OK
Name             Stmts   Miss Branch BrPart  Cover   Missing
------------------------------------------------------------
Collatz.py          40      0     20      0   100%
TestCollatz.py      98      0      0      0   100%
------------------------------------------------------------
TOTAL              138      0     20      0   100%
